{
    "$schema": "https://raw.githubusercontent.com/microsoft/vcpkg-tool/main/docs/vcpkg-configuration.schema.json",
    "default-registry":
    {
        "kind": "git",
        "repository": "https://github.com/Microsoft/vcpkg",
        "baseline": "7e7c62d863b1bf599c1d104b76cd8b74475844d4"
    },
    "registries":
    [
        {
            "kind": "git",
            "repository": "https://gitlab.com/sharpattack/vcpkg_ports.git",
            "baseline": "285d9f5d9e16c879288f9b1e08f67abec29b98dc",
            "packages":
            [
                "gcc-arm-none-eabi",
                "ninja"
            ]
        }
    ]
}
